.......................
----------------------------------------------------------------------
Ran 23 tests in 0.511s

OK
Name             Stmts   Miss Branch BrPart  Cover   Missing
------------------------------------------------------------
Collatz.py          39      0     16      0   100%
TestCollatz.py      97      0      0      0   100%
------------------------------------------------------------
TOTAL              136      0     16      0   100%
